{
  "Lemma": "dog",
  "TypeOfWord": "noun",
  "Synsets": [
    {
      "Description": "nouns denoting animals",
      "Type": "noun",
      "Gloss": "a member of the genus Canis (probably descended from the common wolf) that has been domesticated by man since prehistoric times; occurs in many breeds; \"the dog barked all night\""
    },
    {
      "Description": "nouns denoting people",
      "Type": "noun",
      "Gloss": "a dull unattractive unpleasant girl or woman; \"she got a reputation as a frump\"; \"she's a real dog\""
    },
    {
      "Description": "nouns denoting people",
      "Type": "noun",
      "Gloss": "informal term for a man; \"you lucky dog\""
    },
    {
      "Description": "nouns denoting people",
      "Type": "noun",
      "Gloss": "someone who is morally reprehensible; \"you dirty dog\""
    },
    {
      "Description": "nouns denoting foods and drinks",
      "Type": "noun",
      "Gloss": "a smooth-textured sausage of minced beef or pork usually smoked; often served on a bread roll"
    },
    {
      "Description": "nouns denoting man-made objects",
      "Type": "noun",
      "Gloss": "a hinged catch that fits into a notch of a ratchet to move a wheel forward or prevent it from moving backward"
    },
    {
      "Description": "nouns denoting man-made objects",
      "Type": "noun",
      "Gloss": "metal supports for logs in a fireplace; \"the andirons were too hot to touch\""
    }
  ]
}
