{
  "Lemma": "aquatic",
  "Pos": "adjective",
  "Relation": "antonym",
  "Relations": [
    {
      "Name": "adjective",
      "Description": "all adjective clusters",
      "Gloss": "operating or living or growing in water; \"boats are aquatic vehicles\"; \"water lilies are aquatic plants\"; \"fish are aquatic animals\"",
      "Words": " aquatic",
      "RelatedTo": [
        {
          "Name": "adjective",
          "Description": "all adjective clusters",
          "Gloss": "operating or living or growing on land",
          "Words": ", terrestrial",
          "RelatedTo": []
        }
      ]
    }
  ]
}
